{
  "shell_port": 60475,
  "iopub_port": 51023,
  "stdin_port": 41469,
  "control_port": 40393,
  "hb_port": 50303,
  "ip": "127.0.0.1",
  "key": "4244123d-9c783fb698a2880f6383c55f",
  "transport": "tcp",
  "signature_scheme": "hmac-sha256",
  "kernel_name": ""
}