{
  "base_url": "/user/louayus-tp-mt15-2021-nheodtgz/",
  "hostname": "0.0.0.0",
  "notebook_dir": "/home/jovyan",
  "password": false,
  "pid": 18,
  "port": 8888,
  "secure": false,
  "sock": "",
  "token": "dipVc-OeS6uvl6Y1mue7BA",
  "url": "http://0.0.0.0:8888/user/louayus-tp-mt15-2021-nheodtgz/"
}